RISC-V_chip/sim/rv32ima_soc_top_tb.vcd
$date
	Sun Jun 12 22:03:30 2022
$end
$version
	Icarus Verilog
$end
$timescale
	1ps
$end
$scope module rv32ima_soc_top_tb $end
$var reg 1 ! CLOCK_50 $end
$var reg 1 " rst $end
$scope module rv32ima_soc_top_0 $end
$var wire 1 ! clk_i $end
$var wire 1 " rst_i $end
$var wire 32 # rom_data_rom [31:0] $end
$var wire 1 $ rom_ce_rom $end
$var wire 32 % rom_addr_rom [31:0] $end
$scope module rom_0 $end
$var wire 32 & inst_addr_i [31:0] $end
$var wire 1 $ ce_i $end
$var reg 32 ' inst_o [31:0] $end
$upscope $end
$scope module rv32IMACore_0 $end
$var wire 1 ( MemRead_id $end
$var wire 1 ) MemtoReg_id $end
$var wire 1 ! clk_i $end
$var wire 32 * rom_addr_o [31:0] $end
$var wire 32 + rom_data_i [31:0] $end
$var wire 1 " rst_i $end
$var wire 32 , w_data_o_wb [31:0] $end
$var wire 32 - w_data_mem [31:0] $end
$var wire 32 . w_data_exe [31:0] $end
$var wire 5 / shamt_id [4:0] $end
$var wire 5 0 shamt_exe [4:0] $end
$var wire 5 1 rs2_id [4:0] $end
$var wire 5 2 rs2_exe [4:0] $end
$var wire 5 3 rs1_id [4:0] $end
$var wire 5 4 rs1_exe [4:0] $end
$var wire 1 $ rom_ce_o $end
$var wire 1 5 reg_read2_e_id $end
$var wire 1 6 reg_read1_e_id $end
$var wire 5 7 reg_dest_o_id [4:0] $end
$var wire 5 8 reg_dest_o_exe [4:0] $end
$var wire 32 9 reg_data_o_wb [31:0] $end
$var wire 32 : reg_data_2_id [31:0] $end
$var wire 32 ; reg_data_2_exe [31:0] $end
$var wire 32 < reg_data_1_id [31:0] $end
$var wire 32 = reg_data_1_exe [31:0] $end
$var wire 5 > rd_o_wb [4:0] $end
$var wire 5 ? rd_mem [4:0] $end
$var wire 32 @ pc_mem [31:0] $end
$var wire 32 A pc_if [31:0] $end
$var wire 32 B pc_id_exe [31:0] $end
$var wire 32 C pc_id [31:0] $end
$var wire 32 D pc_exe_mem [31:0] $end
$var wire 32 E pc_exe [31:0] $end
$var wire 32 F mem_data_o_wb [31:0] $end
$var wire 32 G mem_data_o_mem [31:0] $end
$var wire 1 H jump_enable_o_exe2if $end
$var wire 1 I jump_enable_o_exe $end
$var wire 1 J jump_enable_id $end
$var wire 32 K jump_addr_o_exe2if [31:0] $end
$var wire 32 L jump_addr_o_exe [31:0] $end
$var wire 32 M jump_addr_id2exe [31:0] $end
$var wire 32 N inst_id [31:0] $end
$var wire 2 O forwarding_rs2 [1:0] $end
$var wire 2 P forwarding_rs1 [1:0] $end
$var wire 1 Q flush_w $end
$var wire 1 R branch_enable_w $end
$var wire 32 S branch_addr_o_exe2if [31:0] $end
$var wire 32 T branch_addr_o_exe [31:0] $end
$var wire 32 U branch_addr_id2exe [31:0] $end
$var wire 32 V S_imm_o_id [31:0] $end
$var wire 32 W S_imm_o_exe [31:0] $end
$var wire 1 X RegWrite_o_wb $end
$var wire 1 Y RegWrite_mem $end
$var wire 1 Z RegWrite_id $end
$var wire 1 [ RegWrite_exe $end
$var wire 32 \ R_imm_o_id [31:0] $end
$var wire 32 ] R_imm_o_exe [31:0] $end
$var wire 1 ^ MemtoReg_o_wb $end
$var wire 1 _ MemtoReg_mem $end
$var wire 1 ` MemtoReg_exe $end
$var wire 1 a MemWrite_mem $end
$var wire 1 b MemWrite_id $end
$var wire 1 c MemWrite_exe $end
$var wire 1 d MemRead_mem $end
$var wire 1 e MemRead_exe $end
$var wire 1 f Branch_mem $end
$var wire 1 g Branch_id $end
$var wire 1 h Branch_exe $end
$var wire 32 i B_imm_o_id [31:0] $end
$var wire 32 j B_imm_o_exe [31:0] $end
$var wire 1 k ALUSrc_id $end
$var wire 1 l ALUSrc_exe $end
$var wire 5 m ALUOp_id [4:0] $end
$var wire 5 n ALUOp_exe [4:0] $end
$scope module exe_0 $end
$var wire 1 " rst_i $end
$var wire 5 o shamt_exe_i [4:0] $end
$var wire 32 p reg_data_2_i [31:0] $end
$var wire 32 q reg_data_1_i [31:0] $end
$var wire 32 r pc_i [31:0] $end
$var wire 32 s mem_wb_data_i [31:0] $end
$var wire 1 I jump_enable_i_exe $end
$var wire 32 t jump_addr_i [31:0] $end
$var wire 2 u forwarding_rs2_i [1:0] $end
$var wire 2 v forwarding_rs1_i [1:0] $end
$var wire 32 w exe_mem_data_i [31:0] $end
$var wire 1 R branch_enable_o_exe $end
$var wire 32 x branch_addr_i [31:0] $end
$var wire 32 y S_imm_i [31:0] $end
$var wire 32 z R_imm_i [31:0] $end
$var wire 32 { B_imm_i [31:0] $end
$var wire 1 l ALUSrc_i $end
$var wire 5 | ALUOp_i [4:0] $end
$var reg 32 } branch_addr_o [31:0] $end
$var reg 32 ~ jump_addr_o [31:0] $end
$var reg 1 H jump_enable_o_exe $end
$var reg 32 !" op1 [31:0] $end
$var reg 1 "" op1_ge_op2_signed $end
$var reg 32 #" op2 [31:0] $end
$var reg 32 $" pc_o [31:0] $end
$var reg 32 %" w_data_o [31:0] $end
$scope module bcu0 $end
$var wire 32 &" op1_i [31:0] $end
$var wire 32 '" op2_i [31:0] $end
$var wire 1 " rst_i $end
$var wire 5 (" aluop_i [4:0] $end
$var reg 1 R branch_enable_o $end
$upscope $end
$upscope $end
$scope module exe_mem_0 $end
$var wire 1 ! clk_i $end
$var wire 32 )" pc_i [31:0] $end
$var wire 1 " rst_i $end
$var wire 32 *" w_data_i [31:0] $end
$var wire 5 +" rd_i [4:0] $end
$var wire 1 [ RegWrite_i $end
$var wire 1 ` MemtoReg_i $end
$var wire 1 c MemWrite_i $end
$var wire 1 e MemRead_i $end
$var wire 1 h Branch_i $end
$var reg 1 f Branch_o $end
$var reg 1 d MemRead_o $end
$var reg 1 a MemWrite_o $end
$var reg 1 _ MemtoReg_o $end
$var reg 1 Y RegWrite_o $end
$var reg 32 ," pc_o [31:0] $end
$var reg 5 -" rd_o [4:0] $end
$var reg 32 ." w_data_o [31:0] $end
$upscope $end
$scope module forwarding_unit_0 $end
$var wire 5 /" exe_mem_rd_i [4:0] $end
$var wire 1 " rst_i $end
$var wire 5 0" mem_wb_rd_i [4:0] $end
$var wire 5 1" id_exe_rs2_i [4:0] $end
$var wire 5 2" id_exe_rs1_i [4:0] $end
$var reg 2 3" forwarding_rs1_o [1:0] $end
$var reg 2 4" forwarding_rs2_o [1:0] $end
$upscope $end
$scope module hazard_detection_unit_0 $end
$var wire 1 R branch_enable_i $end
$var wire 1 " rst_i $end
$var reg 1 Q flush_enable_o $end
$upscope $end
$scope module id_0 $end
$var wire 1 ( MemRead_o $end
$var wire 1 ) MemtoReg_o $end
$var wire 1 ! clk_i $end
$var wire 1 " rst_i $end
$var wire 5 5" shamt [4:0] $end
$var wire 5 6" rs2 [4:0] $end
$var wire 5 7" rs1 [4:0] $end
$var wire 1 5 reg_read2_e_o $end
$var wire 1 6 reg_read1_e_o $end
$var wire 5 8" rd [4:0] $end
$var wire 7 9" opcode [6:0] $end
$var wire 32 :" inst_i [31:0] $end
$var wire 32 ;" inst_addr_i [31:0] $end
$var wire 32 <" imm_jal [31:0] $end
$var wire 32 =" imm_for_s [31:0] $end
$var wire 32 >" imm_b [31:0] $end
$var wire 32 ?" imm [31:0] $end
$var wire 7 @" funct7 [6:0] $end
$var wire 3 A" funct3 [2:0] $end
$var wire 1 Z RegWrite_o $end
$var wire 1 b MemWrite_o $end
$var wire 1 g Branch_o $end
$var wire 1 k ALUSrc_o $end
$var wire 5 B" ALUOp_o [4:0] $end
$var reg 32 C" B_imm_o [31:0] $end
$var reg 32 D" J_imm_o [31:0] $end
$var reg 32 E" R_imm_o [31:0] $end
$var reg 32 F" S_imm_o [31:0] $end
$var reg 32 G" branch_addr_o [31:0] $end
$var reg 32 H" jump_addr_o [31:0] $end
$var reg 1 J jump_enable_o $end
$var reg 32 I" pc_o [31:0] $end
$var reg 5 J" reg_dest_o [4:0] $end
$var reg 5 K" rs1_o [4:0] $end
$var reg 5 L" rs2_o [4:0] $end
$var reg 5 M" shamt_o [4:0] $end
$scope module control_0 $end
$var wire 3 N" funct3_i [2:0] $end
$var wire 7 O" funct7_i [6:0] $end
$var wire 7 P" opcode_i [6:0] $end
$var wire 1 " rst_i $end
$var reg 5 Q" ALUOp_o [4:0] $end
$var reg 1 k ALUSrc_o $end
$var reg 1 g Branch_o $end
$var reg 1 R" MemRead_o $end
$var reg 1 b MemWrite_o $end
$var reg 1 S" MemtoReg_o $end
$var reg 1 Z RegWrite_o $end
$var reg 1 6 reg_read1_e_o $end
$var reg 1 5 reg_read2_e_o $end
$upscope $end
$upscope $end
$scope module id_exe_0 $end
$var wire 5 T" ALUOp_i [4:0] $end
$var wire 1 k ALUSrc_i $end
$var wire 32 U" B_imm_i [31:0] $end
$var wire 1 g Branch_i $end
$var wire 1 ( MemRead_i $end
$var wire 1 b MemWrite_i $end
$var wire 1 ) MemtoReg_i $end
$var wire 32 V" R_imm_i [31:0] $end
$var wire 1 Z RegWrite_i $end
$var wire 32 W" S_imm_i [31:0] $end
$var wire 32 X" branch_addr_i [31:0] $end
$var wire 1 ! clk_i $end
$var wire 1 Q flush_enable_i $end
$var wire 32 Y" jump_addr_i [31:0] $end
$var wire 1 J jump_enable_i $end
$var wire 32 Z" pc_i [31:0] $end
$var wire 5 [" reg_addr_1_i [4:0] $end
$var wire 5 \" reg_addr_2_i [4:0] $end
$var wire 5 ]" reg_dest_i [4:0] $end
$var wire 1 " rst_i $end
$var wire 5 ^" shamt_i [4:0] $end
$var wire 32 _" reg_data_2_i [31:0] $end
$var wire 32 `" reg_data_1_i [31:0] $end
$var reg 5 a" ALUOp_o [4:0] $end
$var reg 1 l ALUSrc_o $end
$var reg 32 b" B_imm_o [31:0] $end
$var reg 1 h Branch_o $end
$var reg 1 e MemRead_o $end
$var reg 1 c MemWrite_o $end
$var reg 1 ` MemtoReg_o $end
$var reg 32 c" R_imm_o [31:0] $end
$var reg 1 [ RegWrite_o $end
$var reg 32 d" S_imm_o [31:0] $end
$var reg 32 e" branch_addr_o [31:0] $end
$var reg 32 f" jump_addr_o [31:0] $end
$var reg 1 I jump_enable_o $end
$var reg 32 g" pc_o [31:0] $end
$var reg 5 h" reg_addr_1_o [4:0] $end
$var reg 5 i" reg_addr_2_o [4:0] $end
$var reg 32 j" reg_data_1_o [31:0] $end
$var reg 32 k" reg_data_2_o [31:0] $end
$var reg 5 l" reg_dest_o [4:0] $end
$var reg 5 m" shamt_o [4:0] $end
$upscope $end
$scope module if_id_0 $end
$var wire 1 ! clk_i $end
$var wire 1 Q flush_enable_i $end
$var wire 32 n" inst_i [31:0] $end
$var wire 1 " rst_i $end
$var wire 32 o" inst_addr_i [31:0] $end
$var reg 32 p" inst_addr_o [31:0] $end
$var reg 32 q" inst_o [31:0] $end
$upscope $end
$scope module mem_0 $end
$var wire 1 f Branch_i $end
$var wire 1 d MemRead_i $end
$var wire 1 a MemWrite_i $end
$var wire 1 " rst_i $end
$var wire 32 r" w_data_i [31:0] $end
$var reg 32 s" mem_data_o [31:0] $end
$upscope $end
$scope module mem_wb_0 $end
$var wire 1 _ MemtoReg_i $end
$var wire 1 Y RegWrite_i $end
$var wire 1 ! clk_i $end
$var wire 32 t" mem_data_i [31:0] $end
$var wire 5 u" rd_i [4:0] $end
$var wire 32 v" reg_data_i [31:0] $end
$var wire 1 " rst_i $end
$var reg 1 ^ MemtoReg_o $end
$var reg 1 X RegWrite_o $end
$var reg 32 w" mem_data_o [31:0] $end
$var reg 5 x" rd_o [4:0] $end
$var reg 32 y" reg_data_o [31:0] $end
$upscope $end
$scope module pc_0 $end
$var wire 32 z" branch_addr_i [31:0] $end
$var wire 1 R branch_enable_i $end
$var wire 1 ! clk_i $end
$var wire 32 {" jump_addr_i [31:0] $end
$var wire 1 H jump_enable_i $end
$var wire 1 " rst_i $end
$var reg 1 $ ce_o $end
$var reg 32 |" pc_next [31:0] $end
$var reg 32 }" pc_o [31:0] $end
$upscope $end
$scope module register_file_0 $end
$var wire 1 ! clk_i $end
$var wire 5 ~" reg_addr_1_i [4:0] $end
$var wire 5 !# reg_addr_2_i [4:0] $end
$var wire 1 6 reg_read1_e_i $end
$var wire 1 5 reg_read2_e_i $end
$var wire 1 " rst_i $end
$var wire 5 "# w_addr_i [4:0] $end
$var wire 1 X wb_RegWrite_i $end
$var wire 32 ## w_data_i [31:0] $end
$var reg 32 $# reg_data_1_o [31:0] $end
$var reg 32 %# reg_data_2_o [31:0] $end
$var integer 32 &# i [31:0] $end
$upscope $end
$scope module wb_0 $end
$var wire 1 ^ MemtoReg_i $end
$var wire 32 '# mem_data_i [31:0] $end
$var wire 32 (# reg_data_i [31:0] $end
$var wire 1 " rst_i $end
$var reg 32 )# w_data_o [31:0] $end
$upscope $end
$upscope $end
$upscope $end
$upscope $end
$enddefinitions $end
#0
$dumpvars
b0 )#
bx (#
bx '#
b100000 &#
b0 %#
b0 $#
b0 ##
bx "#
b0 !#
b0 ~"
bx }"
bx |"
b0 {"
b0 z"
bx y"
bx x"
bx w"
bx v"
bx u"
b0 t"
b0 s"
bx r"
bx q"
bx p"
bx o"
bx n"
bx m"
bx l"
bx k"
bx j"
bx i"
bx h"
bx g"
bx f"
bx e"
bx d"
bx c"
bx b"
bx a"
b0 `"
b0 _"
b0 ^"
b0 ]"
b0 \"
b0 ["
b0 Z"
b0 Y"
b0 X"
b0 W"
b0 V"
b0 U"
b11111 T"
0S"
0R"
b11111 Q"
bx P"
bx O"
bx N"
b0 M"
b0 L"
b0 K"
b0 J"
b0 I"
b0 H"
b0 G"
b0 F"
b0 E"
b0 D"
b0 C"
b11111 B"
bx A"
bx @"
bx ?"
bx0 >"
b0xxxxxxxxxxxxxxxxxxxxxxxxxxxxxxx ="
bx0 <"
bx ;"
bx :"
bx 9"
bx 8"
bx 7"
bx 6"
bx 5"
b0 4"
b0 3"
bx 2"
bx 1"
bx 0"
bx /"
bx ."
bx -"
bx ,"
bx +"
b0 *"
b0 )"
bx ("
bx '"
bx &"
b0 %"
b0 $"
bx #"
x""
bx !"
b0 ~
b0 }
bx |
bx {
bx z
bx y
bx x
bx w
b0 v
b0 u
bx t
b0 s
bx r
bx q
bx p
bx o
bx n
b11111 m
xl
0k
bx j
b0 i
xh
0g
xf
xe
xd
xc
0b
xa
x`
x_
x^
bx ]
b0 \
x[
0Z
xY
xX
bx W
b0 V
b0 U
bx T
b0 S
0R
0Q
b0 P
b0 O
bx N
b0 M
bx L
b0 K
0J
xI
0H
b0 G
bx F
bx E
b0 D
bx C
b0 B
bx A
bx @
bx ?
bx >
bx =
b0 <
bx ;
b0 :
bx 9
bx 8
b0 7
06
05
bx 4
b0 3
bx 2
b0 1
bx 0
b0 /
b0 .
bx -
b0 ,
bx +
bx *
z)
0(
bx '
bx &
bx %
x$
bx #
0"
0!
$end
#10000
b0 #
b0 '
b0 +
b0 n"
b0 !"
b0 &"
b0 #"
b0 '"
b0 <"
b0 >"
b0 ="
b0 ?"
b0 5"
b0 6"
b0 7"
b0 8"
b0 @"
b0 O"
b0 A"
b0 N"
b0 9"
b0 P"
0$
b0 %
b0 &
b0 *
b0 A
b0 o"
b0 }"
b0 |"
b0 C
b0 ;"
b0 p"
b0 N
b0 :"
b0 q"
0I
b0 L
b0 t
b0 f"
b0 T
b0 x
b0 e"
b0 j
b0 {
b0 b"
b0 W
b0 y
b0 d"
b0 E
b0 r
b0 g"
b0 8
b0 +"
b0 l"
b0 ]
b0 z
b0 c"
0[
0l
0c
b0 n
b0 |
b0 ("
b0 a"
0`
0e
0h
b0 0
b0 o
b0 m"
b0 2
b0 1"
b0 i"
b0 4
b0 2"
b0 h"
b0 ;
b0 p
b0 k"
b0 =
b0 q
b0 j"
b0 ?
b0 -"
b0 /"
b0 u"
0Y
0a
0_
0d
0f
b0 -
b0 w
b0 ."
b0 r"
b0 v"
b0 @
b0 ,"
b0 F
b0 w"
b0 '#
b0 9
b0 y"
b0 (#
b0 >
b0 0"
b0 x"
b0 "#
0X
0^
1!
#20000
0!
#30000
1!
#40000
0!
#50000
1!
#60000
0!
#70000
1!
#80000
0!
#90000
1!
#100000
0!
#110000
1!
#120000
0!
#130000
1!
#140000
0!
#150000
1!
#160000
0!
#170000
1!
#180000
0!
#190000
1!
#195000
1"
#200000
0!
#210000
b1010000000011110000110010011 #
b1010000000011110000110010011 '
b1010000000011110000110010011 +
b1010000000011110000110010011 n"
1$
b100 |"
b11111 n
b11111 |
b11111 ("
b11111 a"
z`
1!
#220000
0!
#230000
1Z
16
1k
b1 m
b1 B"
b1 Q"
b1 T"
b10001010001000 U
b10001010001000 G"
b10001010001000 X"
b11110000010100000 D"
b100010100010 i
b100010100010 C"
b100010100010 U"
b10100011 V
b10100011 F"
b10100011 W"
b11 7
b11 J"
b11 ]"
b11 3
b11 K"
b11 ["
b11 ~"
b10100000 \
b10100000 E"
b10100000 V"
b11111001110000100110001000010011 #
b11111001110000100110001000010011 '
b11111001110000100110001000010011 +
b11111001110000100110001000010011 n"
b11110000010100000 <"
b100010100010 >"
b10100011 ="
b10100000 ?"
b11 7"
b11 8"
b101 @"
b101 O"
b110 A"
b110 N"
b10011 9"
b10011 P"
z_
b1010000000011110000110010011 N
b1010000000011110000110010011 :"
b1010000000011110000110010011 q"
b1000 |"
b100 %
b100 &
b100 *
b100 A
b100 o"
b100 }"
1!
#240000
0!
#250000
b10100000 .
b10100000 %"
b10100000 *"
b101000101110001010010011 #
b101000101110001010010011 '
b101000101110001010010011 +
b101000101110001010010011 n"
b11111111111111111101111000010100 U
b11111111111111111101111000010100 G"
b11111111111111111101111000010100 X"
b11111111111100100110011110011100 D"
b11111111111111111111011110000100 i
b11111111111111111111011110000100 C"
b11111111111111111111011110000100 U"
b1111111111111111111111110000100 V
b1111111111111111111111110000100 F"
b1111111111111111111111110000100 W"
b100 B
b100 I"
b100 Z"
b100 7
b100 J"
b100 ]"
b11100 /
b11100 M"
b11100 ^"
b11100 1
b11100 L"
b11100 \"
b11100 !#
b100 3
b100 K"
b100 ["
b100 ~"
b11111111111111111111111110011100 \
b11111111111111111111111110011100 E"
b11111111111111111111111110011100 V"
b10100000 K
b10100000 ~
b10100000 {"
b10001010001000 S
b10001010001000 }
b10001010001000 z"
b10100000 #"
b10100000 '"
b11111111111100100110011110011100 <"
b11111111111111111111011110000100 >"
b1111111111111111111111110000100 ="
b11111111111111111111111110011100 ?"
b11100 5"
b11100 6"
b100 7"
b100 8"
b1111100 @"
b1111100 O"
b1100 |"
b1000 %
b1000 &
b1000 *
b1000 A
b1000 o"
b1000 }"
b100 C
b100 ;"
b100 p"
b11111001110000100110001000010011 N
b11111001110000100110001000010011 :"
b11111001110000100110001000010011 q"
b10001010001000 T
b10001010001000 x
b10001010001000 e"
b100010100010 j
b100010100010 {
b100010100010 b"
b10100011 W
b10100011 y
b10100011 d"
b11 8
b11 +"
b11 l"
b10100000 ]
b10100000 z
b10100000 c"
1[
1l
b1 n
b1 |
b1 ("
b1 a"
b11 4
b11 2"
b11 h"
z^
1!
#260000
0!
#270000
b11111111111111111111111110011100 .
b11111111111111111111111110011100 %"
b11111111111111111111111110011100 *"
b11111111111111111111111110011100 #"
b11111111111111111111111110011100 '"
b11111111111111111111111110011100 K
b11111111111111111111111110011100 ~
b11111111111111111111111110011100 {"
b11111111111111111101111000010100 S
b11111111111111111101111000010100 }
b11111111111111111101111000010100 z"
b100 D
b100 $"
b100 )"
b10000000011000 U
b10000000011000 G"
b10000000011000 X"
b101110000000001010 D"
b100000000100 i
b100000000100 C"
b100000000100 U"
b101 V
b101 F"
b101 W"
b1000 B
b1000 I"
b1000 Z"
b101 7
b101 J"
b101 ]"
b1010 /
b1010 M"
b1010 ^"
b1010 1
b1010 L"
b1010 \"
b1010 !#
b101 3
b101 K"
b101 ["
b101 ~"
b1010 \
b1010 E"
b1010 V"
b10000101000001100110011 #
b10000101000001100110011 '
b10000101000001100110011 +
b10000101000001100110011 n"
b101110000000001010 <"
b100000000100 >"
b101 ="
b1010 ?"
b1010 5"
b1010 6"
b101 7"
b101 8"
b0 @"
b0 O"
b11 ?
b11 -"
b11 /"
b11 u"
1Y
b10100000 -
b10100000 w
b10100000 ."
b10100000 r"
b10100000 v"
b11111111111111111101111000010100 T
b11111111111111111101111000010100 x
b11111111111111111101111000010100 e"
b11111111111111111111011110000100 j
b11111111111111111111011110000100 {
b11111111111111111111011110000100 b"
b1111111111111111111111110000100 W
b1111111111111111111111110000100 y
b1111111111111111111111110000100 d"
b100 E
b100 r
b100 g"
b100 8
b100 +"
b100 l"
b11111111111111111111111110011100 ]
b11111111111111111111111110011100 z
b11111111111111111111111110011100 c"
b11100 0
b11100 o
b11100 m"
b11100 2
b11100 1"
b11100 i"
b100 4
b100 2"
b100 h"
b1000 C
b1000 ;"
b1000 p"
b101000101110001010010011 N
b101000101110001010010011 :"
b101000101110001010010011 q"
b10000 |"
b1100 %
b1100 &
b1100 *
b1100 A
b1100 o"
b1100 }"
1!
#280000
0!
#290000
b1010 .
b1010 %"
b1010 *"
0k
15
b10 m
b10 B"
b10 Q"
b10 T"
b1000000010000101000001110110011 #
b1000000010000101000001110110011 '
b1000000010000101000001110110011 +
b1000000010000101000001110110011 n"
b100100 U
b100100 G"
b100100 X"
b101000000000000100 D"
b110 i
b110 C"
b110 U"
b110 V
b110 F"
b110 W"
b1100 B
b1100 I"
b1100 Z"
b110 7
b110 J"
b110 ]"
b100 /
b100 M"
b100 ^"
b100 1
b100 L"
b100 \"
b100 !#
b100 \
b100 E"
b100 V"
b1010 K
b1010 ~
b1010 {"
b10000000011000 S
b10000000011000 }
b10000000011000 z"
b1000 D
b1000 $"
b1000 )"
b1010 #"
b1010 '"
b10100000 ,
b10100000 s
b10100000 ##
b10100000 )#
b101000000000000100 <"
b110 >"
b110 ="
b100 ?"
b100 5"
b100 6"
b110 8"
b0 A"
b0 N"
b110011 9"
b110011 P"
b10100 |"
b10000 %
b10000 &
b10000 *
b10000 A
b10000 o"
b10000 }"
b1100 C
b1100 ;"
b1100 p"
b10000101000001100110011 N
b10000101000001100110011 :"
b10000101000001100110011 q"
b10000000011000 T
b10000000011000 x
b10000000011000 e"
b100000000100 j
b100000000100 {
b100000000100 b"
b101 W
b101 y
b101 d"
b1000 E
b1000 r
b1000 g"
b101 8
b101 +"
b101 l"
b1010 ]
b1010 z
b1010 c"
b1010 0
b1010 o
b1010 m"
b1010 2
b1010 1"
b1010 i"
b101 4
b101 2"
b101 h"
b100 ?
b100 -"
b100 /"
b100 u"
b11111111111111111111111110011100 -
b11111111111111111111111110011100 w
b11111111111111111111111110011100 ."
b11111111111111111111111110011100 r"
b11111111111111111111111110011100 v"
b100 @
b100 ,"
b10100000 9
b10100000 y"
b10100000 (#
b11 >
b11 0"
b11 x"
b11 "#
1X
1!
#300000
0!
#310000
b11111111111111111111111110100110 .
b11111111111111111111111110100110 %"
b11111111111111111111111110100110 *"
b1010 !"
b1010 &"
b11 m
b11 B"
b11 Q"
b11 T"
b11111111111111111111111110011100 ,
b11111111111111111111111110011100 s
b11111111111111111111111110011100 ##
b11111111111111111111111110011100 )#
b1110 K
b1110 ~
b1110 {"
b100100 S
b100100 }
b100100 z"
b1100 D
b1100 $"
b1100 )"
b11111111111111111111111110011100 #"
b11111111111111111111111110011100 '"
b10 O
b10 u
b10 4"
b1 P
b1 v
b1 3"
b11111111111111111111111110011100 :
b11111111111111111111111110011100 _"
b11111111111111111111111110011100 %#
b11000000101000 U
b11000000101000 G"
b11000000101000 X"
b101000010000000100 D"
b110000000110 i
b110000000110 C"
b110000000110 U"
b10000000111 V
b10000000111 F"
b10000000111 W"
b10000 B
b10000 I"
b10000 Z"
b111 7
b111 J"
b111 ]"
b10000000100 \
b10000000100 E"
b10000000100 V"
b10000101100010000110011 #
b10000101100010000110011 '
b10000101100010000110011 +
b10000101100010000110011 n"
b101000010000000100 <"
b110000000110 >"
b10000000111 ="
b10000000100 ?"
b111 8"
b100000 @"
b100000 O"
b11111111111111111111111110011100 9
b11111111111111111111111110011100 y"
b11111111111111111111111110011100 (#
b100 >
b100 0"
b100 x"
b100 "#
b101 ?
b101 -"
b101 /"
b101 u"
b1010 -
b1010 w
b1010 ."
b1010 r"
b1010 v"
b1000 @
b1000 ,"
b100100 T
b100100 x
b100100 e"
b110 j
b110 {
b110 b"
b110 W
b110 y
b110 d"
b1100 E
b1100 r
b1100 g"
b110 8
b110 +"
b110 l"
b100 ]
b100 z
b100 c"
0l
b10 n
b10 |
b10 ("
b10 a"
b100 0
b100 o
b100 m"
b100 2
b100 1"
b100 i"
b10000 C
b10000 ;"
b10000 p"
b1000000010000101000001110110011 N
b1000000010000101000001110110011 :"
b1000000010000101000001110110011 q"
b11000 |"
b10100 %
b10100 &
b10100 *
b10100 A
b10100 o"
b10100 }"
1!
#320000
0!
#330000
b100 m
b100 B"
b100 Q"
b100 T"
b10000101111010010110011 #
b10000101111010010110011 '
b10000101111010010110011 +
b10000101111010010110011 n"
b110100 U
b110100 G"
b110100 X"
b101100000000000100 D"
b1000 i
b1000 C"
b1000 U"
b1000 V
b1000 F"
b1000 W"
b10100 B
b10100 I"
b10100 Z"
b1000 7
b1000 J"
b1000 ]"
b100 \
b100 E"
b100 V"
b10000001110 K
b10000001110 ~
b10000001110 {"
b11000000101000 S
b11000000101000 }
b11000000101000 z"
b10000 D
b10000 $"
b10000 )"
b1101110 .
b1101110 %"
b1101110 *"
b1010 !"
b1010 &"
b1010 ,
b1010 s
b1010 ##
b1010 )#
b0 O
b0 u
b0 4"
b10 P
b10 v
b10 3"
b1010 <
b1010 `"
b1010 $#
b101100000000000100 <"
b1000 >"
b1000 ="
b100 ?"
b1000 8"
b0 @"
b0 O"
b100 A"
b100 N"
b11100 |"
b11000 %
b11000 &
b11000 *
b11000 A
b11000 o"
b11000 }"
b10100 C
b10100 ;"
b10100 p"
b10000101100010000110011 N
b10000101100010000110011 :"
b10000101100010000110011 q"
b11000000101000 T
b11000000101000 x
b11000000101000 e"
b110000000110 j
b110000000110 {
b110000000110 b"
b10000000111 W
b10000000111 y
b10000000111 d"
b10000 E
b10000 r
b10000 g"
b111 8
b111 +"
b111 l"
b10000000100 ]
b10000000100 z
b10000000100 c"
b11 n
b11 |
b11 ("
b11 a"
b11111111111111111111111110011100 ;
b11111111111111111111111110011100 p
b11111111111111111111111110011100 k"
b110 ?
b110 -"
b110 /"
b110 u"
b11111111111111111111111110100110 -
b11111111111111111111111110100110 w
b11111111111111111111111110100110 ."
b11111111111111111111111110100110 r"
b11111111111111111111111110100110 v"
b1100 @
b1100 ,"
b1010 9
b1010 y"
b1010 (#
b101 >
b101 0"
b101 x"
b101 "#
1!
#340000
0!
#350000
b0 m
b0 B"
b0 Q"
b0 T"
b11111111111111111111111110100110 ,
b11111111111111111111111110100110 s
b11111111111111111111111110100110 ##
b11111111111111111111111110100110 )#
b0 P
b0 v
b0 3"
b1110 K
b1110 ~
b1110 {"
b110100 S
b110100 }
b110100 z"
b10100 D
b10100 $"
b10100 )"
b11111111111111111111111110010110 .
b11111111111111111111111110010110 %"
b11111111111111111111111110010110 *"
b10000000111000 U
b10000000111000 G"
b10000000111000 X"
b101111000000000100 D"
b100000001000 i
b100000001000 C"
b100000001000 U"
b1001 V
b1001 F"
b1001 W"
b11000 B
b11000 I"
b11000 Z"
b1001 7
b1001 J"
b1001 ]"
b10000101110010100110011 #
b10000101110010100110011 '
b10000101110010100110011 +
b10000101110010100110011 n"
b101111000000000100 <"
b100000001000 >"
b1001 ="
b1001 8"
b111 A"
b111 N"
b11111111111111111111111110100110 9
b11111111111111111111111110100110 y"
b11111111111111111111111110100110 (#
b110 >
b110 0"
b110 x"
b110 "#
b111 ?
b111 -"
b111 /"
b111 u"
b1101110 -
b1101110 w
b1101110 ."
b1101110 r"
b1101110 v"
b10000 @
b10000 ,"
b110100 T
b110100 x
b110100 e"
b1000 j
b1000 {
b1000 b"
b1000 W
b1000 y
b1000 d"
b10100 E
b10100 r
b10100 g"
b1000 8
b1000 +"
b1000 l"
b100 ]
b100 z
b100 c"
b100 n
b100 |
b100 ("
b100 a"
b1010 =
b1010 q
b1010 j"
b11000 C
b11000 ;"
b11000 p"
b10000101111010010110011 N
b10000101111010010110011 :"
b10000101111010010110011 q"
b100000 |"
b11100 %
b11100 &
b11100 *
b11100 A
b11100 o"
b11100 }"
1!
#360000
0!
