RISC-V_chip/sim/rv32ima_soc_top_tb.vcd
$date
	Thu Jun 02 17:29:41 2022
$end
$version
	Icarus Verilog
$end
$timescale
	1ps
$end
$scope module rv32ima_soc_top_tb $end
$var reg 1 ! CLOCK_50 $end
$var reg 1 " rst $end
$scope module rv32ima_soc_top_0 $end
$var wire 1 ! clk_i $end
$var wire 1 " rst_i $end
$var wire 32 # rom_data_rom [31:0] $end
$var wire 1 $ rom_ce_rom $end
$var wire 12 % rom_addr_rom [11:0] $end
$scope module rom_0 $end
$var wire 12 & inst_addr_i [11:0] $end
$var wire 1 $ ce_i $end
$var reg 32 ' inst_o [31:0] $end
$upscope $end
$scope module rv32IMACore_0 $end
$var wire 1 ( MemRead_id $end
$var wire 1 ) MemtoReg_id $end
$var wire 1 ! clk_i $end
$var wire 12 * pc_id [11:0] $end
$var wire 12 + rom_addr_o [11:0] $end
$var wire 32 , rom_data_i [31:0] $end
$var wire 1 " rst_i $end
$var wire 32 - w_data_o_wb [31:0] $end
$var wire 32 . w_data_mem [31:0] $end
$var wire 32 / w_data_exe [31:0] $end
$var wire 5 0 shamt_id [4:0] $end
$var wire 5 1 shamt_exe [4:0] $end
$var wire 5 2 rs2_id [4:0] $end
$var wire 5 3 rs2_exe [4:0] $end
$var wire 5 4 rs1_id [4:0] $end
$var wire 5 5 rs1_exe [4:0] $end
$var wire 1 $ rom_ce_o $end
$var wire 1 6 reg_read2_e_id $end
$var wire 1 7 reg_read1_e_id $end
$var wire 5 8 reg_dest_o_id [4:0] $end
$var wire 5 9 reg_dest_o_exe [4:0] $end
$var wire 32 : reg_data_o_wb [31:0] $end
$var wire 32 ; reg_data_2_id [31:0] $end
$var wire 32 < reg_data_2_exe [31:0] $end
$var wire 32 = reg_data_1_id [31:0] $end
$var wire 32 > reg_data_1_exe [31:0] $end
$var wire 5 ? rd_o_wb [4:0] $end
$var wire 5 @ rd_mem [4:0] $end
$var wire 12 A pc_mem [11:0] $end
$var wire 12 B pc_if [11:0] $end
$var wire 12 C pc_exe_mem [11:0] $end
$var wire 12 D pc_exe [11:0] $end
$var wire 32 E mem_data_o_wb [31:0] $end
$var wire 32 F mem_data_o_mem [31:0] $end
$var wire 32 G inst_id [31:0] $end
$var wire 2 H forwarding_rs2 [1:0] $end
$var wire 2 I forwarding_rs1 [1:0] $end
$var wire 32 J S_imm_o_id [31:0] $end
$var wire 32 K S_imm_o_exe [31:0] $end
$var wire 1 L RegWrite_o_wb $end
$var wire 1 M RegWrite_mem $end
$var wire 1 N RegWrite_id $end
$var wire 1 O RegWrite_exe $end
$var wire 32 P R_imm_o_id [31:0] $end
$var wire 32 Q R_imm_o_exe [31:0] $end
$var wire 1 R MemtoReg_o_wb $end
$var wire 1 S MemtoReg_mem $end
$var wire 1 T MemtoReg_exe $end
$var wire 1 U MemWrite_mem $end
$var wire 1 V MemWrite_id $end
$var wire 1 W MemWrite_exe $end
$var wire 1 X MemRead_mem $end
$var wire 1 Y MemRead_exe $end
$var wire 1 Z Branch_mem $end
$var wire 1 [ Branch_id $end
$var wire 1 \ Branch_exe $end
$var wire 32 ] B_imm_o_id [31:0] $end
$var wire 32 ^ B_imm_o_exe [31:0] $end
$var wire 1 _ ALUSrc_id $end
$var wire 1 ` ALUSrc_exe $end
$var wire 4 a ALUOp_id [3:0] $end
$var wire 4 b ALUOp_exe [3:0] $end
$scope module exe_0 $end
$var wire 1 " rst_i $end
$var wire 5 c shamt_exe_i [4:0] $end
$var wire 32 d reg_data_2_i [31:0] $end
$var wire 32 e reg_data_1_i [31:0] $end
$var wire 12 f pc_i [11:0] $end
$var wire 32 g mem_wb_data_i [31:0] $end
$var wire 2 h forwarding_rs2_i [1:0] $end
$var wire 2 i forwarding_rs1_i [1:0] $end
$var wire 32 j exe_mem_data_i [31:0] $end
$var wire 32 k S_imm_i [31:0] $end
$var wire 32 l R_imm_i [31:0] $end
$var wire 32 m B_imm_i [31:0] $end
$var wire 1 ` ALUSrc_i $end
$var wire 4 n ALUOp_i [3:0] $end
$var reg 32 o op1 [31:0] $end
$var reg 1 p op1_ge_op2_signed $end
$var reg 32 q op2 [31:0] $end
$var reg 12 r pc_o [11:0] $end
$var reg 32 s w_data_o [31:0] $end
$upscope $end
$scope module exe_mem_0 $end
$var wire 1 ! clk_i $end
$var wire 12 t pc_i [11:0] $end
$var wire 1 " rst_i $end
$var wire 32 u w_data_i [31:0] $end
$var wire 5 v rd_i [4:0] $end
$var wire 1 O RegWrite_i $end
$var wire 1 T MemtoReg_i $end
$var wire 1 W MemWrite_i $end
$var wire 1 Y MemRead_i $end
$var wire 1 \ Branch_i $end
$var reg 1 Z Branch_o $end
$var reg 1 X MemRead_o $end
$var reg 1 U MemWrite_o $end
$var reg 1 S MemtoReg_o $end
$var reg 1 M RegWrite_o $end
$var reg 12 w pc_o [11:0] $end
$var reg 5 x rd_o [4:0] $end
$var reg 32 y w_data_o [31:0] $end
$upscope $end
$scope module forwarding_unit_0 $end
$var wire 5 z exe_mem_rd_i [4:0] $end
$var wire 1 " rst_i $end
$var wire 5 { mem_wb_rd_i [4:0] $end
$var wire 5 | id_exe_rs2_i [4:0] $end
$var wire 5 } id_exe_rs1_i [4:0] $end
$var reg 2 ~ forwarding_rs1_o [1:0] $end
$var reg 2 !" forwarding_rs2_o [1:0] $end
$upscope $end
$scope module id_0 $end
$var wire 1 ( MemRead_o $end
$var wire 1 ) MemtoReg_o $end
$var wire 12 "" inst_addr_i [11:0] $end
$var wire 1 " rst_i $end
$var wire 5 #" shamt [4:0] $end
$var wire 5 $" rs2 [4:0] $end
$var wire 5 %" rs1 [4:0] $end
$var wire 1 6 reg_read2_e_o $end
$var wire 1 7 reg_read1_e_o $end
$var wire 5 &" rd [4:0] $end
$var wire 7 '" opcode [6:0] $end
$var wire 32 (" inst_i [31:0] $end
$var wire 32 )" imm_for_s [31:0] $end
$var wire 32 *" imm_b [31:0] $end
$var wire 32 +" imm [31:0] $end
$var wire 7 ," funct7 [6:0] $end
$var wire 3 -" funct3 [2:0] $end
$var wire 1 N RegWrite_o $end
$var wire 1 V MemWrite_o $end
$var wire 1 [ Branch_o $end
$var wire 1 _ ALUSrc_o $end
$var wire 4 ." ALUOp_o [3:0] $end
$var reg 32 /" B_imm_o [31:0] $end
$var reg 32 0" R_imm_o [31:0] $end
$var reg 32 1" S_imm_o [31:0] $end
$var reg 12 2" pc_o [11:0] $end
$var reg 5 3" reg_dest_o [4:0] $end
$var reg 5 4" rs1_o [4:0] $end
$var reg 5 5" rs2_o [4:0] $end
$var reg 5 6" shamt_o [4:0] $end
$scope module control_0 $end
$var wire 3 7" funct3_i [2:0] $end
$var wire 7 8" funct7_i [6:0] $end
$var wire 7 9" opcode_i [6:0] $end
$var wire 1 " rst_i $end
$var reg 4 :" ALUOp_o [3:0] $end
$var reg 1 _ ALUSrc_o $end
$var reg 1 [ Branch_o $end
$var reg 1 ;" MemRead_o $end
$var reg 1 V MemWrite_o $end
$var reg 1 <" MemtoReg_o $end
$var reg 1 N RegWrite_o $end
$var reg 1 7 reg_read1_e_o $end
$var reg 1 6 reg_read2_e_o $end
$upscope $end
$upscope $end
$scope module id_exe_0 $end
$var wire 4 =" ALUOp_i [3:0] $end
$var wire 1 _ ALUSrc_i $end
$var wire 32 >" B_imm_i [31:0] $end
$var wire 1 [ Branch_i $end
$var wire 1 ( MemRead_i $end
$var wire 1 V MemWrite_i $end
$var wire 1 ) MemtoReg_i $end
$var wire 32 ?" R_imm_i [31:0] $end
$var wire 1 N RegWrite_i $end
$var wire 32 @" S_imm_i [31:0] $end
$var wire 1 ! clk_i $end
$var wire 12 A" pc_i [11:0] $end
$var wire 5 B" reg_addr_1_i [4:0] $end
$var wire 5 C" reg_addr_2_i [4:0] $end
$var wire 5 D" reg_dest_i [4:0] $end
$var wire 1 " rst_i $end
$var wire 5 E" shamt_i [4:0] $end
$var wire 32 F" reg_data_2_i [31:0] $end
$var wire 32 G" reg_data_1_i [31:0] $end
$var reg 4 H" ALUOp_o [3:0] $end
$var reg 1 ` ALUSrc_o $end
$var reg 32 I" B_imm_o [31:0] $end
$var reg 1 \ Branch_o $end
$var reg 1 Y MemRead_o $end
$var reg 1 W MemWrite_o $end
$var reg 1 T MemtoReg_o $end
$var reg 32 J" R_imm_o [31:0] $end
$var reg 1 O RegWrite_o $end
$var reg 32 K" S_imm_o [31:0] $end
$var reg 12 L" pc_o [11:0] $end
$var reg 5 M" reg_addr_1_o [4:0] $end
$var reg 5 N" reg_addr_2_o [4:0] $end
$var reg 32 O" reg_data_1_o [31:0] $end
$var reg 32 P" reg_data_2_o [31:0] $end
$var reg 5 Q" reg_dest_o [4:0] $end
$var reg 5 R" shamt_o [4:0] $end
$upscope $end
$scope module if_id_0 $end
$var wire 1 ! clk_i $end
$var wire 32 S" inst_i [31:0] $end
$var wire 1 " rst_i $end
$var wire 12 T" inst_addr_i [11:0] $end
$var reg 12 U" inst_addr_o [11:0] $end
$var reg 32 V" inst_o [31:0] $end
$upscope $end
$scope module mem_0 $end
$var wire 1 Z Branch_i $end
$var wire 1 X MemRead_i $end
$var wire 1 U MemWrite_i $end
$var wire 1 " rst_i $end
$var wire 32 W" w_data_i [31:0] $end
$var reg 32 X" mem_data_o [31:0] $end
$upscope $end
$scope module mem_wb_0 $end
$var wire 1 S MemtoReg_i $end
$var wire 1 M RegWrite_i $end
$var wire 1 ! clk_i $end
$var wire 32 Y" mem_data_i [31:0] $end
$var wire 5 Z" rd_i [4:0] $end
$var wire 32 [" reg_data_i [31:0] $end
$var wire 1 " rst_i $end
$var reg 1 R MemtoReg_o $end
$var reg 1 L RegWrite_o $end
$var reg 32 \" mem_data_o [31:0] $end
$var reg 5 ]" rd_o [4:0] $end
$var reg 32 ^" reg_data_o [31:0] $end
$upscope $end
$scope module pc_0 $end
$var wire 1 ! clk_i $end
$var wire 1 " rst_i $end
$var reg 1 $ ce_o $end
$var reg 12 _" pc_next [11:0] $end
$var reg 12 `" pc_o [11:0] $end
$upscope $end
$scope module register_file_0 $end
$var wire 1 ! clk_i $end
$var wire 5 a" reg_addr_1_i [4:0] $end
$var wire 5 b" reg_addr_2_i [4:0] $end
$var wire 1 7 reg_read1_e_i $end
$var wire 1 6 reg_read2_e_i $end
$var wire 1 " rst_i $end
$var wire 5 c" w_addr_i [4:0] $end
$var wire 1 L wb_RegWrite_i $end
$var wire 32 d" w_data_i [31:0] $end
$var reg 32 e" reg_data_1_o [31:0] $end
$var reg 32 f" reg_data_2_o [31:0] $end
$var integer 32 g" i [31:0] $end
$upscope $end
$scope module wb_0 $end
$var wire 1 R MemtoReg_i $end
$var wire 32 h" mem_data_i [31:0] $end
$var wire 32 i" reg_data_i [31:0] $end
$var wire 1 " rst_i $end
$var reg 32 j" w_data_o [31:0] $end
$upscope $end
$upscope $end
$upscope $end
$upscope $end
$enddefinitions $end
#0
$dumpvars
b0 j"
bx i"
bx h"
b100000 g"
b0 f"
b0 e"
b0 d"
bx c"
b0 b"
b0 a"
bx `"
bx _"
bx ^"
bx ]"
bx \"
bx ["
bx Z"
b0 Y"
b0 X"
bx W"
bx V"
bx U"
bx T"
bx S"
bx R"
bx Q"
bx P"
bx O"
bx N"
bx M"
bx L"
bx K"
bx J"
bx I"
bx H"
b0 G"
b0 F"
b0 E"
b0 D"
b0 C"
b0 B"
bx A"
b0 @"
b0 ?"
b0 >"
b1111 ="
0<"
0;"
b1111 :"
bx 9"
bx 8"
bx 7"
b0 6"
b0 5"
b0 4"
b0 3"
b0 2"
b0 1"
b0 0"
b0 /"
b1111 ."
bx -"
bx ,"
bx +"
b0xxxxxxxxxxxxxxxxxxxxxxxxxxxxxx0 *"
b0xxxxxxxxxxxxxxxxxxxxxxxxxxxxxxx )"
bx ("
bx '"
bx &"
bx %"
bx $"
bx #"
bx ""
b0 !"
b0 ~
bx }
bx |
bx {
bx z
bx y
bx x
bx w
bx v
b0 u
b0 t
b0 s
b0 r
bx q
xp
bx o
bx n
bx m
bx l
bx k
bx j
b0 i
b0 h
b0 g
bx f
bx e
bx d
bx c
bx b
b1111 a
x`
0_
bx ^
b0 ]
x\
0[
xZ
xY
xX
xW
0V
xU
xT
xS
xR
bx Q
b0 P
xO
0N
xM
xL
bx K
b0 J
b0 I
b0 H
bx G
b0 F
bx E
bx D
b0 C
bx B
bx A
bx @
bx ?
bx >
b0 =
bx <
b0 ;
bx :
bx 9
b0 8
07
06
bx 5
b0 4
bx 3
b0 2
bx 1
b0 0
b0 /
bx .
b0 -
bx ,
bx +
bx *
z)
0(
bx '
bx &
bx %
x$
bx #
0"
0!
$end
#10000
b0 #
b0 '
b0 ,
b0 S"
b0 o
b0 q
b0 *"
b0 )"
b0 +"
b0 #"
b0 $"
b0 %"
b0 &"
b0 ,"
b0 8"
b0 -"
b0 7"
b0 '"
b0 9"
0$
b0 %
b0 &
b0 +
b0 B
b0 T"
b0 `"
b0 _"
b0 *
b0 ""
b0 A"
b0 U"
b0 G
b0 ("
b0 V"
b0 ^
b0 m
b0 I"
b0 K
b0 k
b0 K"
b0 D
b0 f
b0 L"
b0 9
b0 v
b0 Q"
b0 Q
b0 l
b0 J"
0O
0`
0W
b0 b
b0 n
b0 H"
0T
0Y
0\
b0 1
b0 c
b0 R"
b0 3
b0 |
b0 N"
b0 5
b0 }
b0 M"
b0 <
b0 d
b0 P"
b0 >
b0 e
b0 O"
b0 @
b0 x
b0 z
b0 Z"
0M
0U
0S
0X
0Z
b0 .
b0 j
b0 y
b0 W"
b0 ["
b0 A
b0 w
b0 E
b0 \"
b0 h"
b0 :
b0 ^"
b0 i"
b0 ?
b0 {
b0 ]"
b0 c"
0L
0R
1!
#20000
0!
#30000
1!
#40000
0!
#50000
1!
#60000
0!
#70000
1!
#80000
0!
#90000
1!
#100000
0!
#110000
1!
#120000
0!
#130000
1!
#140000
0!
#150000
1!
#160000
0!
#170000
1!
#180000
0!
#190000
1!
#195000
1"
#200000
0!
#210000
b11111001110000100110001000010011 #
b11111001110000100110001000010011 '
b11111001110000100110001000010011 ,
b11111001110000100110001000010011 S"
1$
b100 _"
b1111 b
b1111 n
b1111 H"
zT
1!
#220000
0!
#230000
b1111111111111111111011110000100 ]
b1111111111111111111011110000100 /"
b1111111111111111111011110000100 >"
b1111111111111111111111110000100 J
b1111111111111111111111110000100 1"
b1111111111111111111111110000100 @"
b100 8
b100 3"
b100 D"
b11100 0
b11100 6"
b11100 E"
b11100 2
b11100 5"
b11100 C"
b11100 b"
b100 4
b100 4"
b100 B"
b100 a"
b11111111111111111111111110011100 P
b11111111111111111111111110011100 0"
b11111111111111111111111110011100 ?"
1N
17
1_
b1 a
b1 ."
b1 :"
b1 ="
b101000101110001010010011 #
b101000101110001010010011 '
b101000101110001010010011 ,
b101000101110001010010011 S"
b1111111111111111111011110000100 *"
b1111111111111111111111110000100 )"
b11111111111111111111111110011100 +"
b11100 #"
b11100 $"
b100 %"
b100 &"
b1111100 ,"
b1111100 8"
b110 -"
b110 7"
b10011 '"
b10011 9"
zS
b11111001110000100110001000010011 G
b11111001110000100110001000010011 ("
b11111001110000100110001000010011 V"
b1000 _"
b100 %
b100 &
b100 +
b100 B
b100 T"
b100 `"
1!
#240000
0!
#250000
b11111111111111111111111110011100 /
b11111111111111111111111110011100 s
b11111111111111111111111110011100 u
b10000101000001100110011 #
b10000101000001100110011 '
b10000101000001100110011 ,
b10000101000001100110011 S"
b100000000100 ]
b100000000100 /"
b100000000100 >"
b101 J
b101 1"
b101 @"
b0x00 2"
b101 8
b101 3"
b101 D"
b1010 0
b1010 6"
b1010 E"
b1010 2
b1010 5"
b1010 C"
b1010 b"
b101 4
b101 4"
b101 B"
b101 a"
b1010 P
b1010 0"
b1010 ?"
b11111111111111111111111110011100 q
b100000000100 *"
b101 )"
b1010 +"
b1010 #"
b1010 $"
b101 %"
b101 &"
b0 ,"
b0 8"
b1100 _"
b1000 %
b1000 &
b1000 +
b1000 B
b1000 T"
b1000 `"
b0x00 *
b0x00 ""
b0x00 A"
b100 U"
b101000101110001010010011 G
b101000101110001010010011 ("
b101000101110001010010011 V"
b1111111111111111111011110000100 ^
b1111111111111111111011110000100 m
b1111111111111111111011110000100 I"
b1111111111111111111111110000100 K
b1111111111111111111111110000100 k
b1111111111111111111111110000100 K"
b100 9
b100 v
b100 Q"
b11111111111111111111111110011100 Q
b11111111111111111111111110011100 l
b11111111111111111111111110011100 J"
1O
1`
b1 b
b1 n
b1 H"
b11100 1
b11100 c
b11100 R"
b11100 3
b11100 |
b11100 N"
b100 5
b100 }
b100 M"
zR
1!
#260000
0!
#270000
b1010 /
b1010 s
b1010 u
0_
16
b10 a
b10 ."
b10 :"
b10 ="
b0x00 C
b0x00 r
b0x00 t
b1010 q
b110 ]
b110 /"
b110 >"
b110 J
b110 1"
b110 @"
b0xx00 2"
b110 8
b110 3"
b110 D"
b100 0
b100 6"
b100 E"
b100 2
b100 5"
b100 C"
b100 b"
b100 P
b100 0"
b100 ?"
b1000000010000101000001110110011 #
b1000000010000101000001110110011 '
b1000000010000101000001110110011 ,
b1000000010000101000001110110011 S"
b110 *"
b110 )"
b100 +"
b100 #"
b100 $"
b110 &"
b0 -"
b0 7"
b110011 '"
b110011 9"
b100 @
b100 x
b100 z
b100 Z"
1M
b11111111111111111111111110011100 .
b11111111111111111111111110011100 j
b11111111111111111111111110011100 y
b11111111111111111111111110011100 W"
b11111111111111111111111110011100 ["
b100000000100 ^
b100000000100 m
b100000000100 I"
b101 K
b101 k
b101 K"
b0x00 D
b0x00 f
b0x00 L"
b101 9
b101 v
b101 Q"
b1010 Q
b1010 l
b1010 J"
b1010 1
b1010 c
b1010 R"
b1010 3
b1010 |
b1010 N"
b101 5
b101 }
b101 M"
b0xx00 *
b0xx00 ""
b0xx00 A"
b1000 U"
b10000101000001100110011 G
b10000101000001100110011 ("
b10000101000001100110011 V"
b10000 _"
b1100 %
b1100 &
b1100 +
b1100 B
b1100 T"
b1100 `"
1!
#280000
0!
#290000
b11111111111111111111111110100110 /
b11111111111111111111111110100110 s
b11111111111111111111111110100110 u
b11111111111111111111111110011100 ;
b11111111111111111111111110011100 F"
b11111111111111111111111110011100 f"
b1010 o
b110000000110 ]
b110000000110 /"
b110000000110 >"
b10000000111 J
b10000000111 1"
b10000000111 @"
b111 8
b111 3"
b111 D"
b10000000100 P
b10000000100 0"
b10000000100 ?"
b11 a
b11 ."
b11 :"
b11 ="
b10000101100010000110011 #
b10000101100010000110011 '
b10000101100010000110011 ,
b10000101100010000110011 S"
b0xx00 C
b0xx00 r
b0xx00 t
b11111111111111111111111110011100 q
b11111111111111111111111110011100 -
b11111111111111111111111110011100 g
b11111111111111111111111110011100 d"
b11111111111111111111111110011100 j"
b10 H
b10 h
b10 !"
b1 I
b1 i
b1 ~
b110000000110 *"
b10000000111 )"
b10000000100 +"
b111 &"
b100000 ,"
b100000 8"
b10100 _"
b10000 %
b10000 &
b10000 +
b10000 B
b10000 T"
b10000 `"
b1100 U"
b1000000010000101000001110110011 G
b1000000010000101000001110110011 ("
b1000000010000101000001110110011 V"
b110 ^
b110 m
b110 I"
b110 K
b110 k
b110 K"
b0xx00 D
b0xx00 f
b0xx00 L"
b110 9
b110 v
b110 Q"
b100 Q
b100 l
b100 J"
0`
b10 b
b10 n
b10 H"
b100 1
b100 c
b100 R"
b100 3
b100 |
b100 N"
b101 @
b101 x
b101 z
b101 Z"
b1010 .
b1010 j
b1010 y
b1010 W"
b1010 ["
b0x00 A
b0x00 w
b11111111111111111111111110011100 :
b11111111111111111111111110011100 ^"
b11111111111111111111111110011100 i"
b100 ?
b100 {
b100 ]"
b100 c"
1L
1!
#300000
0!
#310000
b100 a
b100 ."
b100 :"
b100 ="
b1010 -
b1010 g
b1010 d"
b1010 j"
b0 H
b0 h
b0 !"
b10 I
b10 i
b10 ~
b1010 o
b1101110 /
b1101110 s
b1101110 u
b1010 =
b1010 G"
b1010 e"
b1000 ]
b1000 /"
b1000 >"
b1000 J
b1000 1"
b1000 @"
b0xxx00 2"
b1000 8
b1000 3"
b1000 D"
b100 P
b100 0"
b100 ?"
b10000101111010010110011 #
b10000101111010010110011 '
b10000101111010010110011 ,
b10000101111010010110011 S"
b1000 *"
b1000 )"
b100 +"
b1000 &"
b0 ,"
b0 8"
b100 -"
b100 7"
b1010 :
b1010 ^"
b1010 i"
b101 ?
b101 {
b101 ]"
b101 c"
b110 @
b110 x
b110 z
b110 Z"
b11111111111111111111111110100110 .
b11111111111111111111111110100110 j
b11111111111111111111111110100110 y
b11111111111111111111111110100110 W"
b11111111111111111111111110100110 ["
b0xx00 A
b0xx00 w
b110000000110 ^
b110000000110 m
b110000000110 I"
b10000000111 K
b10000000111 k
b10000000111 K"
b111 9
b111 v
b111 Q"
b10000000100 Q
b10000000100 l
b10000000100 J"
b11 b
b11 n
b11 H"
b11111111111111111111111110011100 <
b11111111111111111111111110011100 d
b11111111111111111111111110011100 P"
b0xxx00 *
b0xxx00 ""
b0xxx00 A"
b10000 U"
b10000101100010000110011 G
b10000101100010000110011 ("
b10000101100010000110011 V"
b11000 _"
b10100 %
b10100 &
b10100 +
b10100 B
b10100 T"
b10100 `"
1!
#320000
0!
#330000
b100000001000 ]
b100000001000 /"
b100000001000 >"
b1001 J
b1001 1"
b1001 @"
b1001 8
b1001 3"
b1001 D"
b0 a
b0 ."
b0 :"
b0 ="
b10000101110010100110011 #
b10000101110010100110011 '
b10000101110010100110011 ,
b10000101110010100110011 S"
b0xxx00 C
b0xxx00 r
b0xxx00 t
b11111111111111111111111110010110 /
b11111111111111111111111110010110 s
b11111111111111111111111110010110 u
b11111111111111111111111110100110 -
b11111111111111111111111110100110 g
b11111111111111111111111110100110 d"
b11111111111111111111111110100110 j"
b0 I
b0 i
b0 ~
b100000001000 *"
b1001 )"
b1001 &"
b111 -"
b111 7"
b11100 _"
b11000 %
b11000 &
b11000 +
b11000 B
b11000 T"
b11000 `"
b10100 U"
b10000101111010010110011 G
b10000101111010010110011 ("
b10000101111010010110011 V"
b1000 ^
b1000 m
b1000 I"
b1000 K
b1000 k
b1000 K"
b0xxx00 D
b0xxx00 f
b0xxx00 L"
b1000 9
b1000 v
b1000 Q"
b100 Q
b100 l
b100 J"
b100 b
b100 n
b100 H"
b1010 >
b1010 e
b1010 O"
b111 @
b111 x
b111 z
b111 Z"
b1101110 .
b1101110 j
b1101110 y
b1101110 W"
b1101110 ["
b11111111111111111111111110100110 :
b11111111111111111111111110100110 ^"
b11111111111111111111111110100110 i"
b110 ?
b110 {
b110 ]"
b110 c"
1!
#340000
0!
#350000
b1010 ]
b1010 /"
b1010 >"
b1010 J
b1010 1"
b1010 @"
b1010 8
b1010 3"
b1010 D"
b1 a
b1 ."
b1 :"
b1 ="
b1101110 -
b1101110 g
b1101110 d"
b1101110 j"
b1000 /
b1000 s
b1000 u
b10000101011010110110011 #
b10000101011010110110011 '
b10000101011010110110011 ,
b10000101011010110110011 S"
b1010 *"
b1010 )"
b1010 &"
b110 -"
b110 7"
b1101110 :
b1101110 ^"
b1101110 i"
b111 ?
b111 {
b111 ]"
b111 c"
b1000 @
b1000 x
b1000 z
b1000 Z"
b11111111111111111111111110010110 .
b11111111111111111111111110010110 j
b11111111111111111111111110010110 y
b11111111111111111111111110010110 W"
b11111111111111111111111110010110 ["
b0xxx00 A
b0xxx00 w
b100000001000 ^
b100000001000 m
b100000001000 I"
b1001 K
b1001 k
b1001 K"
b1001 9
b1001 v
b1001 Q"
b0 b
b0 n
b0 H"
b11000 U"
b10000101110010100110011 G
b10000101110010100110011 ("
b10000101110010100110011 V"
b100000 _"
b11100 %
b11100 &
b11100 +
b11100 B
b11100 T"
b11100 `"
1!
#360000
0!
#370000
b100000001010 ]
b100000001010 /"
b100000001010 >"
b1011 J
b1011 1"
b1011 @"
b1011 8
b1011 3"
b1011 D"
b110 a
b110 ."
b110 :"
b110 ="
b10000101010011000110011 #
b10000101010011000110011 '
b10000101010011000110011 ,
b10000101010011000110011 S"
b11111111111111111111111110011110 /
b11111111111111111111111110011110 s
b11111111111111111111111110011110 u
b11111111111111111111111110010110 -
b11111111111111111111111110010110 g
b11111111111111111111111110010110 d"
b11111111111111111111111110010110 j"
b100000001010 *"
b1011 )"
b1011 &"
b11 -"
b11 7"
b100100 _"
b100000 %
b100000 &
b100000 +
b100000 B
b100000 T"
b100000 `"
b11100 U"
b10000101011010110110011 G
b10000101011010110110011 ("
b10000101011010110110011 V"
b1010 ^
b1010 m
b1010 I"
b1010 K
b1010 k
b1010 K"
b1010 9
b1010 v
b1010 Q"
b1 b
b1 n
b1 H"
b1001 @
b1001 x
b1001 z
b1001 Z"
b1000 .
b1000 j
b1000 y
b1000 W"
b1000 ["
b11111111111111111111111110010110 :
b11111111111111111111111110010110 ^"
b11111111111111111111111110010110 i"
b1000 ?
b1000 {
b1000 ]"
b1000 c"
1!
#380000
0!
#390000
b101 a
b101 ."
b101 :"
b101 ="
b1000 -
b1000 g
b1000 d"
b1000 j"
b1 /
b1 s
b1 u
0p
b1100 ]
b1100 /"
b1100 >"
b1100 J
b1100 1"
b1100 @"
b0xxxx00 2"
b1100 8
b1100 3"
b1100 D"
b10000101001011010110011 #
b10000101001011010110011 '
b10000101001011010110011 ,
b10000101001011010110011 S"
b1100 *"
b1100 )"
b1100 &"
b10 -"
b10 7"
b1000 :
b1000 ^"
b1000 i"
b1001 ?
b1001 {
b1001 ]"
b1001 c"
b1010 @
b1010 x
b1010 z
b1010 Z"
b11111111111111111111111110011110 .
b11111111111111111111111110011110 j
b11111111111111111111111110011110 y
b11111111111111111111111110011110 W"
b11111111111111111111111110011110 ["
b100000001010 ^
b100000001010 m
b100000001010 I"
b1011 K
b1011 k
b1011 K"
b1011 9
b1011 v
b1011 Q"
b110 b
b110 n
b110 H"
b0xxxx00 *
b0xxxx00 ""
b0xxxx00 A"
b100000 U"
b10000101010011000110011 G
b10000101010011000110011 ("
b10000101010011000110011 V"
b101000 _"
b100100 %
b100100 &
b100100 +
b100100 B
b100100 T"
b100100 `"
1!
#400000
0!
#410000
b0 /
b0 s
b0 u
b100000001100 ]
b100000001100 /"
b100000001100 >"
b1101 J
b1101 1"
b1101 @"
b1101 8
b1101 3"
b1101 D"
1_
06
b111 a
b111 ."
b111 :"
b111 ="
b10000101101011100110011 #
b10000101101011100110011 '
b10000101101011100110011 ,
b10000101101011100110011 S"
b0xxxx00 C
b0xxxx00 r
b0xxxx00 t
1p
b11111111111111111111111110011110 -
b11111111111111111111111110011110 g
b11111111111111111111111110011110 d"
b11111111111111111111111110011110 j"
b100000001100 *"
b1101 )"
b1101 &"
b1 -"
b1 7"
b101100 _"
b101000 %
b101000 &
b101000 +
b101000 B
b101000 T"
b101000 `"
b100100 U"
b10000101001011010110011 G
b10000101001011010110011 ("
b10000101001011010110011 V"
b1100 ^
b1100 m
b1100 I"
b1100 K
b1100 k
b1100 K"
b0xxxx00 D
b0xxxx00 f
b0xxxx00 L"
b1100 9
b1100 v
b1100 Q"
b101 b
b101 n
b101 H"
b1011 @
b1011 x
b1011 z
b1011 Z"
b1 .
b1 j
b1 y
b1 W"
b1 ["
b11111111111111111111111110011110 :
b11111111111111111111111110011110 ^"
b11111111111111111111111110011110 i"
b1010 ?
b1010 {
b1010 ]"
b1010 c"
1!
#420000
0!
#430000
b1110 ]
b1110 /"
b1110 >"
b1110 J
b1110 1"
b1110 @"
b1110 8
b1110 3"
b1110 D"
b1000 a
b1000 ."
b1000 :"
b1000 ="
b1 -
b1 g
b1 d"
b1 j"
b100 q
b10100000 /
b10100000 s
b10100000 u
b1000000010000101101011110110011 #
b1000000010000101101011110110011 '
b1000000010000101101011110110011 ,
b1000000010000101101011110110011 S"
b1110 *"
b1110 )"
b1110 &"
b101 -"
b101 7"
b1 :
b1 ^"
b1 i"
b1011 ?
b1011 {
b1011 ]"
b1011 c"
b1100 @
b1100 x
b1100 z
b1100 Z"
b0 .
b0 j
b0 y
b0 W"
b0 ["
b0xxxx00 A
b0xxxx00 w
b100000001100 ^
b100000001100 m
b100000001100 I"
b1101 K
b1101 k
b1101 K"
b1101 9
b1101 v
b1101 Q"
1`
b111 b
b111 n
b111 H"
b101000 U"
b10000101101011100110011 G
b10000101101011100110011 ("
b10000101101011100110011 V"
b110000 _"
b101100 %
b101100 &
b101100 +
b101100 B
b101100 T"
b101100 `"
1!
#440000
0!
#450000
b110000001110 ]
b110000001110 /"
b110000001110 >"
b10000001111 J
b10000001111 1"
b10000001111 @"
b1111 8
b1111 3"
b1111 D"
b10000000100 P
b10000000100 0"
b10000000100 ?"
b1001 a
b1001 ."
b1001 :"
b1001 ="
bx #
bx '
bx ,
bx S"
b0 /
b0 s
b0 u
b0 -
b0 g
b0 d"
b0 j"
b110000001110 *"
b10000001111 )"
b10000000100 +"
b1111 &"
b100000 ,"
b100000 8"
b110100 _"
b110000 %
b110000 &
b110000 +
b110000 B
b110000 T"
b110000 `"
b101100 U"
b1000000010000101101011110110011 G
b1000000010000101101011110110011 ("
b1000000010000101101011110110011 V"
b1110 ^
b1110 m
b1110 I"
b1110 K
b1110 k
b1110 K"
b1110 9
b1110 v
b1110 Q"
b1000 b
b1000 n
b1000 H"
b1101 @
b1101 x
b1101 z
b1101 Z"
b10100000 .
b10100000 j
b10100000 y
b10100000 W"
b10100000 ["
b0 :
b0 ^"
b0 i"
b1100 ?
b1100 {
b1100 ]"
b1100 c"
1!
#460000
0!
